Reading Data
…
## 'data.frame':    17568 obs. of  3 variables:
##  $ steps   : int  NA NA NA NA NA NA NA NA NA NA ...
##  $ date    : Factor w/ 61 levels "2012-10-01","2012-10-02",..: 1 1 1 1 1 1 1 1 1 1 ...
##  $ interval: int  0 5 10 15 20 25 30 35 40 45 ...

Total No of Steps

Mean Total No. of Steps taken each day

library(dplyr)
Steps <- activity %>% group_by(date) %>% summarise(Total_steps = sum(steps,na.rm = T))
Steps

## # A tibble: 61 × 2
##          date Total_steps
##        <fctr>       <int>
## 1  2012-10-01           0
## 2  2012-10-02         126
## 3  2012-10-03       11352
## 4  2012-10-04       12116
## 5  2012-10-05       13294
## 6  2012-10-06       15420
## 7  2012-10-07       11015
## 8  2012-10-08           0
## 9  2012-10-09       12811
## 10 2012-10-10        9900
## # ... with 51 more rows
…
